…
Here’s a sample of species per iconic taxon group:

``` r
observations_2023 %>%
  filter(taxon_rank == 'species' &
           quality_grade == 'research' &
           observations_place==1) %>%
  group_by(iconic_taxon_name, taxon_name) %>%
  count() %>%
  group_by(iconic_taxon_name) %>%
  slice_head(n=3)
```

    # A tibble: 24 × 3
    # Groups:   iconic_taxon_name [11]
       iconic_taxon_name taxon_name                    n
       <chr>             <chr>                     <int>
     1 Actinopterygii    Aluterus monoceros            1
     2 Actinopterygii    Austrolebias alexandri        1
     3 Actinopterygii    Austrolebias melanoorus       1
     4 Animalia          Potamotrygon falkneri         1
     5 Arachnida         Acropsopilio chilensis        1
     6 Arachnida         Akela ruricola                1
     7 Arachnida         Creugas lisei                 1
     8 Aves              Arundinicola leucocephala     1
     9 Aves              Fulmarus glacialis            1
    10 Aves              Fulmarus glacialoides         1
    # ℹ 14 more rows
…
